{
    "loadedModules": [
        "PratibheApp"
    ],
    "modules": [
        {
            "name": "home",
            "files": [
                "js/Service/homeService.js",
                "js/Controller/homeController.js"
            ]
        }, {
            "name": "db",
            "files": [
                "js/Service/dbService.js",
                "js/Controller/dbController.js"
            ]
        },
        {
            "name": "profile",
            "files": [
                "js/Service/profileService.js",
                "js/Controller/profileController.js"
            ]
        },
        {
            "name": "changepwd",
            "files": [
                "js/Service/changepwdService.js",
                "js/Controller/changepwdController.js"
            ]
        },
        {
            "name": "mapping",
            "files": [
                "js/Service/Mentor/mappingService.js",
                "js/Controller/Mentor/mappingController.js"
            ]
        },
        {
            "name": "city",
            "files": [
                "js/Service/cityService.js",
                "js/Controller/cityController.js"
            ]
        },
        {
            "name": "state",
            "files": [
                "js/Service/stateService.js",
                "js/Controller/stateController.js"
            ]
        },
        {
            "name": "events",
            "files": [
                "js/Service/eventsService.js",
                "js/Controller/eventsController.js"
            ]
        },
        {
            "name": "event",
            "files": [
                "js/Service/Mentor/eventService.js",
                "js/Controller/Mentor/eventController.js"
            ]
        },
        {
            "name": "happenings",
            "files": [
                "js/Service/happeningsService.js",
                "js/Controller/happeningsController.js"
            ]
        },
        {
            "name": "eventtype",
            "files": [
                "js/Service/eventtypeService.js",
                "js/Controller/eventtypeController.js"
            ]
        },
        {
            "name": "art",
            "files": [
                "js/Service/artService.js",
                "js/Controller/artController.js"
            ]
        },
        {
            "name": "user",
            "files": [
                "js/Service/usersService.js",
                "js/Controller/usersController.js"
            ]
        },
        {
            "name": "menstud",
            "files": [
                "js/Service/Mentor/studentService.js",
                "js/Controller/Mentor/studentController.js"
            ]
        },
        {
            "name": "studenthappening",
            "files": [
                "js/Controller/Student/studentHappeningsController.js",
                "js/Service/Student/studentHappeningsSercvice.js"
            ]
        },
        {
            "name": "mentorhappenings",
            "files": [
                "js/Service/Mentor/mentorHappningService.js",
                "js/Controller/Mentor/mentorHappeningsController.js"
            ]
        },
        {
            "name": "work",
            "files": [
                "js/Service/workService.js",
                "js/Controller/workController.js"
            ]
        },
        {
            "name": "register",
            "files": [
                "js/Services/registerService.js",
                "js/Controllers/registerController.js"
            ]
        },
        {
            "name": "inquiry",
            "files": [
                "js/Service/inquiryService.js",
                "js/Controller/inquiryController.js"
            ]
        },
        {
            "name": "pages",
            "files": [
                "js/Service/pagesService.js",
                "js/Controller/pagesController.js",
                "js/nicEdit.js"
            ]
        }
    ]
}
